id,label,tweet
1,0,when father is dysfunctional and is soo selfish he drags happyy his kids into his dysfunction run
2,0,thanks for lyft credit cant cause they dont offer wheelchair vans in pdx disapointed getthanked
3,0,bihday your majesty
4,0,love take with all the time in ur 
5,0,factsguide society now motivation
6,0, huge fan fare and big talking before they leave chaos and pay disputes when they get there allshowandnogo
7,0,camping tomorrow danny
8,0,the next school year is the year for exams cant think about that  school exams hate imagine actorslife revolutionschool girl
9,0,we won love the land allin cavs champions cleveland clevelandcavaliers 
10,0,welcome here  im its so gr 
11,0, ireland consumer price index mom climbed from previous  to  in may blog silver gold forex
12,0,we are so selfish orlando standwithorlando pulseshooting orlandoshooting biggerproblems selfish heabreaking values love
13,0,get to see my daddy today days gettingfed
14,1,cnn calls michigan middle school build the wall chant  tcot
15,1,no comment in australia opkillingbay seashepherd helpcovedolphins thecove helpcovedolphins
16,0,ouchjunior is angrygot junior yugyoem omg
17,0,am thankful for having paner thankful positive
18,1,retweet if you agree
19,0,its friday  smiles all around via ig user cookies make people
20,0,as we all know essential oils are not made of chemicals
21,0,euro people blaming ha for conceded goal was it fat rooney who gave away free kick knowing bale can hit them from there
22,0,sad little dude badday coneofshame cats pissed funny laughs
23,0,product of the day happy man wine tool whos its the weekend time to open up amp drink up
24,1,lumpy says am  prove it lumpy
25,0,tgif ff to my gamedev indiedev indiegamedev squad
26,0,beautiful sign by vendor  for  upsideofflorida shopalyssas love
27,0,all smiles when media is  pressconference in antalya turkey  sunday throwback love 
28,0,we had great panel on the mediatization of the public service ica
29,0,happy fathers day 
30,0, people went to nightclub to have good night and mans actions means those people are lost to their families forever riporlando
31,0,have never had chance to vote for presidential candidate was excited about and this cycle looks to be no different
32,0,alohafriday time does not exist positivevibes hawaiian
33,0,rip to the fellow nohern ireland fan who sadley passed away tonight gawa forever singing and cheering on fire
34,0,it was hard monday due to cloudy weather disabling oxygen production for today goodnight badmonday
35,1,its unbelievable that in the st century wed need something like this again neverump xenophobia
36,0,taylorswift bull up you will dominate your bull and you will direct it whatever you want it to do
37,0,morning travelingram dalat ripinkylife
38,0,once more only one word tells it all photoshop enoughisenough dontphotoshopeverything wheresallthenaturalphotos
39,0,oh cedarpoint waited hours in the valravn line and it stopped working we were so close
40,0,am thankful for sunshine thankful positive
41,0,when you finally finish book youve been working on for awhile bookworm ontothenextnovel
42,0,yup being knicks fan is hard so its easier to just be an nba fan when the playoffs roll around 
43,0,there is life after social networking embrace each day be
44,0,my mom shares the same bihday as bihday snake see you this weekend 
45,0,lovely echeveria bloomsflowers grow gardening iphonesia bliss blooms basilicabotanica
46,0,am amazing iam positive affirmation
47,0,love take with all the time in ur 
48,0,whenever im and something goes wrong 
49,0,feeling blue illustration
50,0,the best pa about life is knowing who you are  
51,0,abc getting ready remove the victums frm pulseclub prayfororlando
52,0,for her bihday we got her nose job  bihday petunia we love you 
53,0,off to concelebrate at the albanpilgrimage for the first time
54,0,let the scumbaggery begin
55,0,thank you  super love it  zpamdelacruz wedding dolores capas tarlac
56,0,scourge on those playing baroque pieces on piano beyond belief
57,1,lets fight against love peace
58,0,happy fathers day mr rayos video fathers day rayos world hotvideo videos
59,0,ascot times with this babe  ascot fashion monochrome style instahappyday
60,0,the weekendis here selfie yolo xoxo likelike
61,0,happy at work conference right mindset leads to cultureofdevelopment organizations work mindset
62,0,christina grimmies last performance before being shot via christinarip voice christinagrimmie
63,0,we are ready to dance roar preschoolers students proud
64,0,youve really hu my feelings 
65,0,my wife whom adore had to miss your poland show because she had surgery her name is bridget amp shes my everything
66,0,am so jealous of you right now chatiado
67,0,celebrate every man that has played its fatherly role fathers day
68,0,im sure they are just as happy  hour
69,1,the white establishment cant have blk folx running around loving themselves and promoting our greatness
70,0,good morning the journey begins  travel yeah thejourneybegins hello
71,0,if you luv hottweets like this from  venusexchange
72,0,our new brochures have arrived how exciting aworks solutions
73,0,so much stuff happening in florida first orlando shooting and now disneygatorattack on two year old kid
74,0,ferrari will do it for the sake of the championship this gp is clearly turning point rb ferrarimercs
75,0,aced my first test proud
76,0,seeks probe into udtapunjab leak points finger at amarinder aap
77,0,wrapping up senseaboutmaths th
78,1,hey white people you can call people white by race identity med
79,0,you might be just have not shown here today regurgitated talking points and name calling
80,0,sometimes you have to raise few brows to raise the bar golfstrengthandconditioning strong felixfoisgolf
81,0,about that  greathonour careerconvos
82,0,designing innovative learning space to include wateringhole cave mountaintop campfire
83,1,how the altright uses amp insecurity to lure men into whitesupremacy
84,0,carrying gun wouldnt of helped if you cant take it in with you gun control wont stop the black market terrorism will get worse
85,0,the power of your mind to heal your body  altwaystoheal healthy peace
86,0,woohoo just over weeks to go
87,0,being in far away place where you have no family members hus
88,0,ready to rehearse tonight with new music and new videos look out for the announcement midweek newmusic watchthisspace guitar
89,0,now on monday nights at pm on up channel finally get to see what all the fuss is about
90,0,watching the new episodes of on
91,0,offline now after very nice and long night  snapchat redhead vermillionred
92,0, things incredibly people do
93,0,yes received my acceptance letter for my masters so will be back at again in october goodtimes history
94,0,daughter riding her bike around driveway son playing his guitar for while we enjoy  by the campfire summeime memories
95,0,omg loving this station way to jam out at work while getting work done of course memories
96,0,ill always hope that one day ill get to hug you but dont think that its gonna happen anytime soon
97,0,love take with all the time in ur 
98,0,couple having sex fat naked japanese girls
99,0,hump on that hump day humpers edwardsville pennsylvania
100,0,personalised we gbp  get here shop cool home fun
